%YAML 1.1
%TAG !u! tag:unity3d.com,2011:
--- !u!78 &1
TagManager:
  serializedVersion: 2
  tags:
  - Platform
  - SwingingString
  - Coin
  - Health
  - StationaryString
  - DashArrow
  - DashCrystal
  - GameManager
  - LoseMenu
  - HighScore
  - HighScoreName
  - StoreContent
  - InventoryContent
  - StringPopup
  - WelcomeScreen
  - StoreScreen
  layers:
  - Default
  - TransparentFX
  - Ignore Raycast
  - 
  - Water
  - UI
  - 
  - 
  - 
  - 
  - 
  - 
  - 
  - 
  - 
  - 
  - 
  - 
  - 
  - 
  - 
  - 
  - 
  - 
  - 
  - 
  - 
  - 
  - 
  - 
  - 
  - 
  m_SortingLayers:
  - name: Default
    uniqueID: 0
    locked: 0
  - name: Background1
    uniqueID: 3872047379
    locked: 0
  - name: Background2
    uniqueID: 1589573181
    locked: 0
  - name: Level
    uniqueID: 3979744351
    locked: 0
  - name: Player
    uniqueID: 685000395
    locked: 0
  - name: UI
    uniqueID: 1412332291
    locked: 0
